<?xml version="1.0" encoding="utf-8"?>
<!-- Generator: Adobe Illustrator 25.3.1, SVG Export Plug-In . SVG Version: 6.00 Build 0)  -->
<svg version="1.1" id="Ebene_1" xmlns="http://www.w3.org/2000/svg" xmlns:xlink="http://www.w3.org/1999/xlink" x="0px" y="0px"
	 viewBox="0 0 28.3 28.3" style="enable-background:new 0 0 28.3 28.3;" xml:space="preserve">
<style type="text/css">
	.st0{fill:#7888C3;}
</style>
<path class="st0" d="M25.1,23H3.2c-0.6,0-1.1-0.5-1.1-1.1v-14l11.5,6.8c0.4,0.2,0.8,0.2,1.2,0l11.5-6.8v14
	C26.2,22.5,25.7,23,25.1,23z"/>
<path class="st0" d="M2.1,6.7V6.2c0-0.6,0.5-1.1,1.1-1.1h21.9c0.6,0,1.1,0.5,1.1,1.1v0.5l-11.5,6.8c-0.4,0.2-0.8,0.2-1.2,0L2.1,6.7z
	"/>
</svg>
