<?xml version="1.0" encoding="utf-8"?>
<!-- Generator: Adobe Illustrator 25.3.1, SVG Export Plug-In . SVG Version: 6.00 Build 0)  -->
<svg version="1.1" id="Ebene_1" xmlns="http://www.w3.org/2000/svg" xmlns:xlink="http://www.w3.org/1999/xlink" x="0px" y="0px"
	 viewBox="0 0 16 16" style="enable-background:new 0 0 16 16;" xml:space="preserve">
<style type="text/css">
	.st0{fill:none;stroke:#7B8FFF;stroke-width:1.5;stroke-linecap:round;stroke-linejoin:round;stroke-miterlimit:10;}
</style>
<polyline class="st0" points="5.6,1.5 1.5,1.5 1.5,5.6 "/>
<polyline class="st0" points="1.5,10.4 1.5,14.5 5.6,14.5 "/>
<polyline class="st0" points="10.4,14.5 14.5,14.5 14.5,10.4 "/>
<polyline class="st0" points="14.5,5.6 14.5,1.5 10.4,1.5 "/>
</svg>
