<?xml version="1.0" encoding="utf-8"?>
<!-- Generator: Adobe Illustrator 25.3.1, SVG Export Plug-In . SVG Version: 6.00 Build 0)  -->
<svg version="1.1" id="Ebene_1" xmlns="http://www.w3.org/2000/svg" xmlns:xlink="http://www.w3.org/1999/xlink" x="0px" y="0px"
	 viewBox="0 0 68.2 50" style="enable-background:new 0 0 68.2 50;" xml:space="preserve">
<style type="text/css">
	.st0{fill:#DEDEDE;}
</style>
<g id="Layer_1">
	<path id="path2702" class="st0" d="M58.6,22.2l0.2-1.7H56c-0.8,0-1.1-0.4-1-0.8c0-0.1,0-0.2,0-0.3l-2.1,0c-0.1,0.5,0.3,1.1,0.8,1.1
		c0,0,0.1,0,0.1,0l0,0H53l-0.1,1.6L58.6,22.2z M59,17.5h-7.8l-0.2,1.6h7.8L59,17.5z M53.1,15.2h-1.8l-0.2,1.7H53L53.1,15.2z
		 M59.2,15.2h-5.6l-0.2,1.7h5.6L59.2,15.2z M49.9,32.5h4.8c1.6,0.2,3-1,3.2-2.5c0.1-1.3-0.8-2.4-2.8-2.4c-1.4,0-3,0.9-3.1,2.2
		c0,0.4,0,0.7,0.3,1H50L49.9,32.5z M55.8,23c0.5,0.4,0.8,1,0.8,1.6c0,0.2-0.1,0.3-0.1,0.5l-1.9-2.4c-1.1,0.3-1.8,1.2-2,2.2
		c-0.1,1.3,0.9,2.4,2.8,2.4c1.5,0.1,2.8-1,3-2.5c0.1-0.7-0.1-1.4-0.5-2L55.8,23z M53.7,14.5h5.6l0.2-1.7h-3.3
		c-0.3,0-0.7-0.1-0.7-0.4c0-0.3,0.4-0.4,0.6-0.4h3.5l0.2-1.7H56c-1.1,0-2.1,0.4-2.2,1.3c0,0.5,0.3,1,0.7,1.3l0,0h-0.7L53.7,14.5z
		 M47.8,9h13l-2.4,25.1c-0.3,7.3-6.3,13.1-13.7,13.1l-0.6,0L47.8,9z M54.9,30.8c-0.5,0-0.9-0.3-0.8-0.7c0.1-0.4,0.5-0.7,0.9-0.7
		c0.5,0,0.9,0.3,0.8,0.7C55.7,30.5,55.3,30.8,54.9,30.8L54.9,30.8z M55.4,25.6c-0.1,0.1-0.3,0.1-0.4,0.1c-0.5,0-0.9-0.3-0.9-0.7
		c0-0.2,0.1-0.4,0.3-0.5L55.4,25.6"/>
	<path id="path2704" class="st0" d="M45,12.7l-3.3,34.4C34.3,45.8,29.3,42,30,34.8l0,0l1.6-16.4H10.3c-3.5,0-6.4-2.9-6.4-6.5
		c0-3.5,2.9-6.3,6.4-6.4h28.4c3.5,0,6.4,2.9,6.4,6.4C45,12.2,45,12.4,45,12.7"/>
	<path id="path2706" class="st0" d="M16.9,19.8h11.7l-2.3,24H14.6L16.9,19.8"/>
</g>
</svg>
